wokwi-logic (11).vcd
$version Generated by Wokwi.com $end
$date Wed, 16 Aug 2023 14:09:06 GMT $end
$timescale 1ns $end
$scope module logic $end
$var wire 1 ! D1 $end
$upscope $end
$enddefinitions $end
#0
0!
#0
1!
#18125
0!
#1544125
1!
#1548937
0!
#2244625
1!
#2249437
0!
#3445125
1!
#3449937
0!
#20945625
1!
#20950437
0!
#21646187
1!
#21651000
0!
#22846625
1!
#22851437
0!
#40347125
1!
#40351937
0!
#41047687
1!
#41052500
0!
#42248125
1!
#42252937
0!
#59748687
1!
#59753500
0!
#60449125
1!
#60453937
0!
#61649625
1!
#61654437
0!
#79150125
1!
#79154937
0!
#79850625
1!
#79855437
0!
#81051125
1!
#81055937
0!
#98551687
1!
#98556500
0!
#99252125
1!
#99256937
0!
#100452625
1!
#100457437
0!
#117953187
1!
#117958000
0!
#118653687
1!
#118658500
0!
#119854125
1!
#119858937
0!
#137354625
1!
#137359437
0!
#138055187
1!
#138060000
0!
#139255625
1!
#139260437
0!
#156756187
1!
#156761000
0!
#157456687
1!
#157461500
0!
#158657125
1!
#158661937
0!
#176157687
1!
#176162500
0!
#176858250
1!
#176863062
0!
#178058625
1!
#178063437
0!
#195559125
1!
#195563937
0!
#196259625
1!
#196264437
0!
#197460125
1!
#197464937
0!
#214960625
1!
#214965437
0!
#215661187
1!
#215666000
0!
#216861625
1!
#216866437
0!
#234362125
1!
#234366937
0!
#235062687
1!
#235067500
0!
#236263250
1!
#236268062
0!
#253763625
1!
#253768437
0!
#254464125
1!
#254468937
0!
#255664624
1!
#255669437
0!
#273165125
1!
#273169937
0!
#273865625
1!
#273870437
0!
#275066125
1!
#275070937
0!
#292566625
1!
#292571437
0!
#293267125
1!
#293271937
0!
#294467625
1!
#294472437
0!
#311968125
1!
#311972937
0!
#312668687
1!
#312673500
0!
#313869125
1!
#313873937
0!
#331369625
1!
#331374437
0!
#332070187
1!
#332075000
0!
#333270687
1!
#333275500
0!
#350771125
1!
#350775937
0!
#351471625
1!
#351476437
0!
#352672125
1!
#352676937
0!
#370172687
1!
#370177500
0!
#370873187
1!
#370878000
0!
#372073750
1!
#372078562
0!
#389574187
1!
#389579000
0!
#390274625
1!
#390279437
0!
#391475187
1!
#391480000
0!
#408975625
1!
#408980437
0!
#409676125
1!
#409680937
0!
#410876687
1!
#410881500
0!
#428377187
1!
#428382000
0!
#429079437
1!
#429084250
0!
#430278125
1!
#430282937
0!
#447778750
1!
#447783562
0!
#448479187
1!
#448484000
0!
#449679625
1!
#449684437
0!
#467180125
1!
#467184937
0!
#467880625
1!
#467885437
0!
#469081125
1!
#469085937
0!
#486581625
1!
#486586437
0!
#487282187
1!
#487287000
0!
#488482625
1!
#488487437
0!
#505983250
1!
#505988062
0!
#506683750
1!
#506688562
0!
#507884125
1!
#507888937
0!
#525384625
1!
#525389437
0!
#526085249
1!
#526090062
0!
#527285687
1!
#527290500
0!
#544791437
1!
#544796250
0!
#545486625
1!
#545491437
0!
#546687187
1!
#546692000
0!
#564187687
1!
#564192500
0!
#564888125
1!
#564892937
0!
#566088625
1!
#566093437
0!
#583589187
1!
#583594000
0!
#584289625
1!
#584294437
0!
#585490187
1!
#585495000
0!
#602990625
1!
#602995437
0!
#603691125
1!
#603695937
0!
#604891687
1!
#604896500
0!
#622392125
1!
#622396937
0!
#623092625
1!
#623097437
0!
#624293125
1!
#624297937
0!
#641793625
1!
#641798437
0!
#642494187
1!
#642499000
0!
#643694625
1!
#643699437
0!
#661195187
1!
#661200000
0!
#661895625
1!
#661900437
0!
#663096125
1!
#663100937
0!
#680596687
1!
#680601500
0!
#681297125
1!
#681301937
0!
#682497687
1!
#682502500
0!
#699998125
1!
#700002937
0!
#700698625
1!
#700703437
0!
#701899187
1!
#701904000
0!
#719399687
1!
#719404500
0!
#720100250
1!
#720105062
0!
#721300750
1!
#721305562
0!
#738801125
1!
#738805937
0!
#739501625
1!
#739506437
0!
#740702187
1!
#740707000
0!
#758202625
1!
#758207437
0!
#758903125
1!
#758907937
0!
#760103625
1!
#760108437
0!
#777604250
1!
#777609062
0!
#778304625
1!
#778309437
0!
#779505125
1!
#779509937
0!
#797005687
1!
#797010500
0!
#797706125
1!
#797710937
0!
#798906625
1!
#798911437
0!
#816407125
1!
#816411937
0!
#817107625
1!
#817112437
0!
#818308187
1!
#818313000
0!
#835808625
1!
#835813437
0!
#836509250
1!
#836514062
0!
#837709687
1!
#837714500
0!
#855210125
1!
#855214937
0!
#855910625
1!
#855915437
0!
#857111437
1!
#857116250
0!
#874611625
1!
#874616437
0!
#875312125
1!
#875316937
0!
#876512750
1!
#876517562
0!
#894013125
1!
#894017937
0!
#894713625
1!
#894718437
0!
#895914125
1!
#895918937
0!
#913414625
1!
#913419437
0!
#914115125
1!
#914119937
0!
#915315625
1!
#915320437
0!
#932816125
1!
#932820937
0!
#933516625
1!
#933521437
0!
#934717250
1!
#934722062
0!
#952217625
1!
#952222437
0!
#952918125
1!
#952922937
0!
#954118625
1!
#954123437
0!
#971619125
1!
#971623937
0!
#972319687
1!
#972324500
0!
#973520125
1!
#973524937
0!
#991020687
1!
#991025500
0!
#991721187
1!
#991726000
0!
#992921625
1!
#992926437
0!
#1010422125
1!
#1010426937
0!
#1011122687
1!
#1011127500
0!
#1012323125
1!
#1012327937
0!
#1029823624
1!
#1029828437
0!
#1030524250
1!
#1030529062
0!
#1031724625
1!
#1031729437
0!
#1049225125
1!
#1049229937
0!
#1049925625
1!
#1049930437
0!
#1051126124
1!
#1051130937
0!
#1068626625
1!
#1068631437
0!
#1069327187
1!
#1069332000
0!
#1070527625
1!
#1070532437
0!
#1088028125
1!
#1088032937
0!
#1088728687
1!
#1088733500
0!
#1089929250
1!
#1089934062
0!
#1107429625
1!
#1107434437
0!
#1108130125
1!
#1108134937
0!
#1109330625
1!
#1109335437
0!
#1126831125
1!
#1126835937
0!
#1127531625
1!
#1127536437
0!
#1128732125
1!
#1128736937
0!
#1146232625
1!
#1146237437
0!
#1146933125
1!
#1146937937
0!
#1148133625
1!
#1148138437
0!
#1165634125
1!
#1165638937
0!
#1166334625
1!
#1166339437
0!
#1167535125
1!
#1167539937
0!
#1185035625
1!
#1185040437
0!
#1185736125
1!
#1185740937
0!
#1186936687
1!
#1186941500
0!
#1204437125
1!
#1204441937
0!
#1205137687
1!
#1205142500
0!
#1206338125
1!
#1206342937
0!
#1223838687
1!
#1223843500
0!
#1224539125
1!
#1224543937
0!
#1225739687
1!
#1225744500
0!
#1243240187
1!
#1243245000
0!
#1243940687
1!
#1243945500
0!
#1245141125
1!
#1245145937
0!
#1262641625
1!
#1262646437
0!
#1263342125
1!
#1263346937
0!
#1264542625
1!
#1264547437
0!
#1282043125
1!
#1282047937
0!
#1282743625
1!
#1282748437
0!
#1283944125
1!
#1283948937
0!
#1301444625
1!
#1301449437
0!
#1302145187
1!
#1302150000
0!
#1303345625
1!
#1303350437
0!
#1320846187
1!
#1320851000
0!
#1321546625
1!
#1321551437
0!
#1322747125
1!
#1322751937
0!
#1340247687
1!
#1340252500
0!
#1340948187
1!
#1340953000
0!
#1342148687
1!
#1342153500
0!
#1359649187
1!
#1359654000
0!
#1360349750
1!
#1360354562
0!
#1361550125
1!
#1361554937
0!
#1379050750
1!
#1379055562
0!
#1379751250
1!
#1379756062
0!
#1380951687
1!
#1380956500
0!
#1398452125
1!
#1398456937
0!
#1399152625
1!
#1399157437
0!
#1400353187
1!
#1400358000
0!
#1417853687
1!
#1417858500
0!
#1418554125
1!
#1418558937
0!
#1419754625
1!
#1419759437
0!
#1437255187
1!
#1437260000
0!
#1437955625
1!
#1437960437
0!
#1439156187
1!
#1439161000
0!
#1456656625
1!
#1456661437
0!
#1457357125
1!
#1457361937
0!
#1458557687
1!
#1458562500
0!
#1476058125
1!
#1476062937
0!
#1476758625
1!
#1476763437
0!
#1477959125
1!
#1477963937
0!
#1495459625
1!
#1495464437
0!
#1496160187
1!
#1496165000
0!
#1497360625
1!
#1497365437
0!
#1514861187
1!
#1514866000
0!
#1515561625
1!
#1515566437
0!
#1516762125
1!
#1516766937
0!
#1534262687
1!
#1534267500
0!
#1534963125
1!
#1534967937
0!
#1536163687
1!
#1536168500
0!
#1553664125
1!
#1553668937
0!
#1554364625
1!
#1554369437
0!
#1555565187
1!
#1555570000
0!
#1573065687
1!
#1573070500
0!
#1573766187
1!
#1573771000
0!
#1574966750
1!
#1574971562
0!
#1592467125
1!
#1592471937
0!
#1593167750
1!
#1593172562
0!
#1594368125
1!
#1594372937
0!
#1611868625
1!
#1611873437
0!
#1612569125
1!
#1612573937
0!
#1613769625
1!
#1613774437
0!
#1631270250
1!
#1631275062
0!
#1631970625
1!
#1631975437
0!
#1633171125
1!
#1633175937
0!
#1650671687
1!
#1650676500
0!
#1651372125
1!
#1651376937
0!
#1652572687
1!
#1652577500
0!
#1670073125
1!
#1670077937
0!
#1670773625
1!
#1670778437
0!
#1671974187
1!
#1671979000
0!
#1689474687
1!
#1689479500
0!
#1690175250
1!
#1690180062
0!
#1691375625
1!
#1691380437
0!
#1708876187
1!
#1708881000
0!
#1709576625
1!
#1709581437
0!
#1710777187
1!
#1710782000
0!
#1728277750
1!
#1728282562
0!
#1728978125
1!
#1728982937
0!
#1730178750
1!
#1730183562
0!
#1747679125
1!
#1747683937
0!
#1748379625
1!
#1748384437
0!
#1749580125
1!
#1749584937
0!
#1767080625
1!
#1767085437
0!
#1767781125
1!
#1767785937
0!
#1768981625
1!
#1768986437
0!
#1786482125
1!
#1786486937
0!
#1787182625
1!
#1787187437
0!
#1788383250
1!
#1788388062
0!
#1805883625
1!
#1805888437
0!
#1806584125
1!
#1806588937
0!
#1807784625
1!
#1807789437
0!
#1825285125
1!
#1825289937
0!
#1825985687
1!
#1825990500
0!
#1827186125
1!
#1827190937
0!
#1844686687
1!
#1844691500
0!
#1845387187
1!
#1845392000
0!
#1846587625
1!
#1846592437
0!
#1864088125
1!
#1864092937
0!
#1864788687
1!
#1864793500
0!
#1865989125
1!
#1865993937
0!
#1883489625
1!
#1883494437
0!
#1884190250
1!
#1884195062
0!
#1885390625
1!
#1885395437
0!
#1902891125
1!
#1902895937
0!
#1903591687
1!
#1903596500
0!
#1904792125
1!
#1904796937
0!
#1922292625
1!
#1922297437
0!
#1922993125
1!
#1922997937
0!
#1924193625
1!
#1924198437
0!
#1941694125
1!
#1941698937
0!
#1942394625
1!
#1942399437
0!
#1943595250
1!
#1943600062
0!
#1961095625
1!
#1961100437
0!
#1961796125
1!
#1961800937
0!
#1962996687
1!
#1963001500
0!
#1980497125
1!
#1980501937
0!
#1981197625
1!
#1981202437
0!
#1982398125
1!
#1982402937
0!
#1999898625
1!
#1999903437
0!
#2000599125
1!
#2000603937
0!
#2001799687
1!
#2001804500
0!
#2019300125
1!
#2019304937
0!
#2020000625
1!
#2020005437
0!
#2021201125
1!
#2021205937
0!
#2038701750
1!
#2038706562
0!
#2039402125
1!
#2039406937
0!
#2040602625
1!
#2040607437
0!
#2058103125
1!
#2058107937
0!
#2058803687
1!
#2058808500
0!
#2060004250
1!
#2060009062
0!
#2077504625
1!
#2077509437
0!
#2078205125
1!
#2078209937
0!
#2079405687
1!
#2079410499
0!
#2096906250
1!
#2096911062
0!
#2097606687
1!
#2097611500
0!
#2098807125
1!
#2098811937
0!
#2116307625
1!
#2116312437
0!
#2117008125
1!
#2117012937
0!
#2118208624
1!
#2118213437
0!
#2135709125
1!
#2135713937
0!
#2136409625
1!
#2136414437
0!
#2137610125
1!
#2137614937
0!
#2155110625
1!
#2155115437
0!
#2155811187
1!
#2155816000
0!
#2157011625
1!
#2157016437
0!
#2174512187
1!
#2174517000
0!
#2175212625
1!
#2175217437
0!
#2176413125
1!
#2176417937
0!
#2193913687
1!
#2193918500
0!
#2194614187
1!
#2194619000
0!
#2195814687
1!
#2195819500
0!
#2213315187
1!
#2213320000
0!
#2214015750
1!
#2214020562
0!
#2215216125
1!
#2215220937
0!
#2232716750
1!
#2232721562
0!
#2233417250
1!
#2233422062
0!
#2234617687
1!
#2234622500
0!
#2252118125
1!
#2252122937
0!
#2252823562
1!
#2252828375
0!
#2254019187
1!
#2254024000
0!
#2271519687
1!
#2271524500
0!
#2272220125
1!
#2272224937
0!
#2273420625
1!
#2273425437
0!
#2290921187
1!
#2290926000
0!
#2291621750
1!
#2291626562
0!
#2292822187
1!
#2292827000
0!
#2310322625
1!
#2310327437
0!
#2311023187
1!
#2311028000
0!
#2312223687
1!
#2312228500
0!
#2329724125
1!
#2329728937
0!
#2330424687
1!
#2330429500
0!
#2331625125
1!
#2331629937
0!
#2349125625
1!
#2349130437
0!
#2349826125
1!
#2349830937
0!
#2351026625
1!
#2351031437
0!
#2368527125
1!
#2368531937
0!
#2369227625
1!
#2369232437
0!
#2370428125
1!
#2370432937
0!
#2387928625
1!
#2387933437
0!
#2388629125
1!
#2388633937
0!
#2389829625
1!
#2389834437
0!
#2407330187
1!
#2407335000
0!
#2408030625
1!
#2408035437
0!
#2409231125
1!
#2409235937
0!
#2426731625
1!
#2426736437
0!
#2427432187
1!
#2427437000
0!
#2428632625
1!
#2428637437
0!
#2446133187
1!
#2446138000
0!
#2446833750
1!
#2446838562
0!
#2448034125
1!
#2448038937
0!
#2465534625
1!
#2465539437
0!
#2466235125
1!
#2466239937
0!
#2467435625
1!
#2467440437
0!
#2484936125
1!
#2484940937
0!
#2485636625
1!
#2485641437
0!
#2486837125
1!
#2486841937
0!
#2504337687
1!
#2504342500
0!
#2505038125
1!
#2505042937
0!
#2506238687
1!
#2506243500
0!
#2523739125
1!
#2523743937
0!
#2524439625
1!
#2524444437
0!
#2525640187
1!
#2525645000
0!
#2543140687
1!
#2543145500
0!
#2543841250
1!
#2543846062
0!
#2545041625
1!
#2545046437
0!
#2562542187
1!
#2562547000
0!
#2563242625
1!
#2563247437
0!
#2564443187
1!
#2564448000
0!
#2581943750
1!
#2581948562
0!
#2582644125
1!
#2582648937
0!
#2583844750
1!
#2583849562
0!
#2601345125
1!
#2601349937
0!
#2602045625
1!
#2602050437
0!
#2603246250
1!
#2603251062
0!
#2620746625
1!
#2620751437
0!
#2621447187
1!
#2621452000
0!
#2622647625
1!
#2622652437
0!
#2640148125
1!
#2640152937
0!
#2640848750
1!
#2640853562
0!
#2642049250
1!
#2642054062
0!
#2659549625
1!
#2659554437
0!
#2660250187
1!
#2660255000
0!
#2661450625
1!
#2661455437
0!
#2678951125
1!
#2678955937
0!
#2679651625
1!
#2679656437
0!
#2680855437
1!
#2680860250
0!
#2698352687
1!
#2698357500
0!
#2699053125
1!
#2699057937
0!
#2700253687
1!
#2700258500
0!
#2717754125
1!
#2717758937
0!
#2718454625
1!
#2718459437
0!
#2719655187
1!
#2719660000
0!
#2737155750
1!
#2737160562
0!
#2737856187
1!
#2737861000
0!
#2739056625
1!
#2739061437
0!
#2756557125
1!
#2756561937
0!
#2757257687
1!
#2757262500
0!
#2758458125
1!
#2758462937
0!
#2775958625
1!
#2775963437
0!
#2776659125
1!
#2776663937
0!
#2777859625
1!
#2777864437
0!
#2795360250
1!
#2795365062
0!
#2796060625
1!
#2796065437
0!
#2797261187
1!
#2797266000
0!
#2814761625
1!
#2814766437
0!
#2815462125
1!
#2815466937
0!
#2816662750
1!
#2816667562
0!
#2834163125
1!
#2834167937
0!
#2834863625
1!
#2834868437
0!
#2836064125
1!
#2836068937
0!
#2853564625
1!
#2853569437
0!
#2854265125
1!
#2854269937
0!
#2855465687
1!
#2855470500
0!
#2872966125
1!
#2872970937
0!
#2873666625
1!
#2873671437
0!
#2874867125
1!
#2874871937
0!
#2892367750
1!
#2892372562
0!
#2893068125
1!
#2893072937
0!
#2894268625
1!
#2894273437
0!
#2911769125
1!
#2911773937
0!
#2912469687
1!
#2912474500
0!
#2913670250
1!
#2913675062
0!
#2931170625
1!
#2931175437
0!
#2931871125
1!
#2931875937
0!
#2933071687
1!
#2933076500
0!
#2950572250
1!
#2950577062
0!
#2951272687
1!
#2951277500
0!
#2952473125
1!
#2952477937
0!
#2969973625
1!
#2969978437
0!
#2970674125
1!
#2970678937
0!
#2971874625
1!
#2971879437
0!
#2989375125
1!
#2989379937
0!
#2990075625
1!
#2990080437
0!
#2991276125
1!
#2991280937
0!
#3008776625
1!
#3008781437
0!
#3009477250
1!
#3009482062
0!
#3010677625
1!
#3010682437
0!
#3028178187
1!
#3028183000
0!
#3028878625
1!
#3028883437
0!
#3030079125
1!
#3030083937
0!
#3047579687
1!
#3047584500
0!
#3048280125
1!
#3048284937
0!
#3049480625
1!
#3049485437
0!
#3066981187
1!
#3066986000
0!
#3067681625
1!
#3067686437
0!
#3068882125
1!
#3068886937
0!
#3086382750
1!
#3086387562
0!
#3087083125
1!
#3087087937
0!
#3088283625
1!
#3088288437
0!
#3105784187
1!
#3105789000
0!
#3106484687
1!
#3106489500
0!
#3107685125
1!
#3107689937
0!
#3125185625
1!
#3125190437
0!
#3125886125
1!
#3125890937
0!
#3127086687
1!
#3127091500
0!
#3144587125
1!
#3144591937
0!
#3145287750
1!
#3145292562
0!
#3146488125
1!
#3146492937
0!
#3163988625
1!
#3163993437
0!
#3164689187
1!
#3164694000
0!
#3165889625
1!
#3165894437
0!
#3183390125
1!
#3183394937
0!
#3184090687
1!
#3184095500
0!
#3185291125
1!
#3185295937
0!
#3202791687
1!
#3202796500
0!
#3203492125
1!
#3203496937
0!
#3204692625
1!
#3204697437
0!
#3222193125
1!
#3222197937
0!
#3222893625
1!
#3222898437
0!
#3224094125
1!
#3224098937
0!
#3241594625
1!
#3241599437
0!
#3242295125
1!
#3242299937
0!
#3243495625
1!
#3243500437
0!
#3260996187
1!
#3261001000
0!
#3261696625
1!
#3261701437
0!
#3262897125
1!
#3262901937
0!
#3280397625
1!
#3280402437
0!
#3281098187
1!
#3281103000
0!
#3282298625
1!
#3282303437
0!
#3299799187
1!
#3299804000
0!
#3300499750
1!
#3300504562
0!
#3301700125
1!
#3301704937
0!
#3319200625
1!
#3319205437
0!
#3319901125
1!
#3319905937
0!
#3321101625
1!
#3321106437
0!
#3338602125
1!
#3338606937
0!
#3339302625
1!
#3339307437
0!
#3340503125
1!
#3340507937
0!
#3358003687
1!
#3358008500
0!
#3358704187
1!
#3358709000
0!
#3359904687
1!
#3359909500
0!
#3377405125
1!
#3377409937
0!
#3378105687
1!
#3378110500
0!
#3379306187
1!
#3379311000
0!
#3396806687
1!
#3396811500
0!
#3397507125
1!
#3397511937
0!
#3398707625
1!
#3398712437
0!
#3416208187
1!
#3416213000
0!
#3416908625
1!
#3416913437
0!
#3418109125
1!
#3418113937
0!
#3435609750
1!
#3435614562
0!
#3436310125
1!
#3436314937
0!
#3437510625
1!
#3437515437
0!
#3455011125
1!
#3455015937
0!
#3455711687
1!
#3455716500
0!
#3456912125
1!
#3456916937
0!
#3474412625
1!
#3474417437
0!
#3475113187
1!
#3475118000
0!
#3476313687
1!
#3476318500
0!
#3493814250
1!
#3493819062
0!
#3494514750
1!
#3494519562
0!
#3495715187
1!
#3495720000
0!
#3499872250
0"
