wokwi-logic (14).vcd
$version Generated by Wokwi.com $end
$date Wed, 16 Aug 2023 14:28:40 GMT $end
$timescale 1ns $end
$scope module logic $end
$var wire 1 ! D0 $end
$upscope $end
$enddefinitions $end
#0
0!
#15000
1!
#500027687
0!
#1000038062
1!
#1500047875
0!
#2000060625
1!
#2500071500
0!
#3000085312
1!
#3500094250
0!
#3549864062
0!
